Chapter 7 Subclustering | NMps_book.utf8
…
#ggsave("2g)AllClusters_markerGeneHeatmap.tiff", hm, dpi = 500, width = 17, height = 17,units = c("cm"))

top7_wilcox

## # A tibble: 56 x 7
## # Groups:   cluster [8]
##       p_val avg_logFC pct.1 pct.2 p_val_adj cluster gene       
##       <dbl>     <dbl> <dbl> <dbl>     <dbl> <fct>   <chr>      
##  1 5.41e-54     1.55  0.796 0.118  1.62e-49 0       gfap       
##  2 8.71e-29     1.44  0.689 0.201  2.60e-24 0       slc1a3a    
##  3 1.69e-31     1.41  0.893 0.44   5.06e-27 0       prtga      
##  4 5.01e-44     1.30  0.816 0.181  1.50e-39 0       wnt11r     
##  5 3.60e-42     1.28  0.903 0.268  1.08e-37 0       nova2      
##  6 3.88e-42     1.27  0.854 0.219  1.16e-37 0       sox3       
##  7 7.61e-22     1.13  0.932 0.766  2.28e-17 0       mdka       
##  8 6.98e-16     1.13  0.922 0.482  2.09e-11 1       actc1a     
##  9 8.80e-16     1.12  0.922 0.482  2.63e-11 1       hm:zewp0073
## 10 7.98e-26     0.954 1     0.62   2.39e-21 1       fn1b       
## # ... with 46 more rows
…
